{
	"X-Frame-Options": [
		"DENY"
	],
	"X-XSS-Protection": [
		"1",
		"mode=block"
	],
	"Content-Security-Policy": [
		"default-src 'none'",
		"object-src 'none'",
		"font-src 'self' fonts.googleapis.com",
		"img-src 'self' *.kheina.com",
		"script-src 'self' ajax.cloudflare.com 'unsafe-inline'",
		"style-src 'self' 'unsafe-inline'",
		"connect-src 'self' *.kheina.com",
		"form-action 'self' *.kheina.com",
		"base-uri 'self' *.kheina.com",
		"frame-ancestors 'none'"
	]
}